[
	[
		{
			"title": "Lorem ipsum",
			"description": "Lorem ipsum dolor sit amet, consectetur adipiscing elit, sed do eiusmod tempor incididunt ut labore et dolore magna aliqua.",
			"status": "complete",
			"more": [
				{
					"title": "Lorem ipsum",
					"description": "Lorem ipsum dolor sit amet, consectetur adipiscing elit, sed do eiusmod tempor incididunt ut labore et dolore magna aliqua.",
					"status": "complete"
				},
				{
					"title": "Lorem ipsum",
					"description": "Lorem ipsum dolor sit amet, consectetur adipiscing elit, sed do eiusmod tempor incididunt ut labore et dolore magna aliqua.",
					"status": "complete"
				},
				{
					"title": "Lorem ipsum",
					"description": "Lorem ipsum dolor sit amet, consectetur adipiscing elit, sed do eiusmod tempor incididunt ut labore et dolore magna aliqua.",
					"status": "complete"
				}
			]
		},
		{
			"title": "Lorem ipsum",
			"description": "Lorem ipsum dolor sit amet, consectetur adipiscing elit, sed do eiusmod tempor incididunt ut labore et dolore magna aliqua.",
			"status": "incomplete",
			"more": [
				{
					"title": "Lorem ipsum",
					"description": "Lorem ipsum dolor sit amet, consectetur adipiscing elit, sed do eiusmod tempor incididunt ut labore et dolore magna aliqua.",
					"status": "incomplete"
				}
			]
		}
	],
	[
		{
			"title": "Lorem ipsum",
			"description": "Lorem ipsum dolor sit amet, consectetur adipiscing elit, sed do eiusmod tempor incididunt ut labore et dolore magna aliqua.",
			"status": "complete"
		},
		{
			"title": "Lorem ipsum",
			"description": "Lorem ipsum dolor sit amet, consectetur adipiscing elit, sed do eiusmod tempor incididunt ut labore et dolore magna aliqua.",
			"status": "complete",
			"more": [
				{
					"title": "Lorem ipsum",
					"description": "Lorem ipsum dolor sit amet, consectetur adipiscing elit, sed do eiusmod tempor incididunt ut labore et dolore magna aliqua.",
					"status": "complete"
				}
			]
		}
	],
	[
		{
			"title": "Lorem ipsum",
			"description": "Lorem ipsum dolor sit amet, consectetur adipiscing elit, sed do eiusmod tempor incididunt ut labore et dolore magna aliqua.",
			"status": "complete",
			"more": [
				{
					"title": "Lorem ipsum",
					"description": "Lorem ipsum dolor sit amet, consectetur adipiscing elit, sed do eiusmod tempor incididunt ut labore et dolore magna aliqua.",
					"status": "complete"
				},
				{
					"title": "Lorem ipsum",
					"description": "Lorem ipsum dolor sit amet, consectetur adipiscing elit, sed do eiusmod tempor incididunt ut labore et dolore magna aliqua.",
					"status": "complete"
				},
				{
					"title": "Lorem ipsum",
					"description": "Lorem ipsum dolor sit amet, consectetur adipiscing elit, sed do eiusmod tempor incididunt ut labore et dolore magna aliqua.",
					"status": "complete"
				}
			]
		},
		{
			"title": "Lorem ipsum",
			"description": "Lorem ipsum dolor sit amet, consectetur adipiscing elit, sed do eiusmod tempor incididunt ut labore et dolore magna aliqua.",
			"status": "incomplete",
			"more": [
				{
					"title": "Lorem ipsum",
					"description": "Lorem ipsum dolor sit amet, consectetur adipiscing elit, sed do eiusmod tempor incididunt ut labore et dolore magna aliqua.",
					"status": "incomplete"
				}
			]
		}
	],
	[
		{
			"title": "Lorem ipsum",
			"description": "Lorem ipsum dolor sit amet, consectetur adipiscing elit, sed do eiusmod tempor incididunt ut labore et dolore magna aliqua.",
			"status": "complete",
			"more": [
				{
					"title": "Lorem ipsum",
					"description": "Lorem ipsum dolor sit amet, consectetur adipiscing elit, sed do eiusmod tempor incididunt ut labore et dolore magna aliqua.",
					"status": "complete"
				},
				{
					"title": "Lorem ipsum",
					"description": "Lorem ipsum dolor sit amet, consectetur adipiscing elit, sed do eiusmod tempor incididunt ut labore et dolore magna aliqua.",
					"status": "complete"
				},
				{
					"title": "Lorem ipsum",
					"description": "Lorem ipsum dolor sit amet, consectetur adipiscing elit, sed do eiusmod tempor incididunt ut labore et dolore magna aliqua.",
					"status": "complete"
				}
			]
		},
		{
			"title": "Lorem ipsum",
			"description": "Lorem ipsum dolor sit amet, consectetur adipiscing elit, sed do eiusmod tempor incididunt ut labore et dolore magna aliqua.",
			"status": "incomplete",
			"more": [
				{
					"title": "Lorem ipsum",
					"description": "Lorem ipsum dolor sit amet, consectetur adipiscing elit, sed do eiusmod tempor incididunt ut labore et dolore magna aliqua.",
					"status": "incomplete"
				}
			]
		}
	]
]